{
  "color": {
    "desc": "Returns the hex and rgba of the color",
    "syntax": "<color>",
    "required_roles": [],
    "required_perms": []
  },
  "prb": {
    "desc": "Removes a bot from your project",
    "syntax": "<project-name> <bot-name>",
    "required_roles": [],
    "required_perms": []
  },
  "poll": {
    "desc": "Creates a poll",
    "syntax": "<title(in double quotes)> <question(in double quotes)> <emojis(example emoji: example answer)>",
    "required_roles": [],
    "required_perms": []
  },
  "djs": {
    "desc": "Fetches Discord.JS Documentation",
    "syntax": "<query> [source]",
    "required_roles": [],
    "required_perms": []
  },
  "rd": {
    "desc": "Removes dev from a project",
    "syntax": "<project-name> <username>",
    "required_roles": [],
    "required_perms": []
  },
  "cat": {
    "desc": "Outputs file content",
    "syntax": "<file>",
    "required_roles": [],
    "required_perms": []
  },
  "dc": {
    "desc": "Removes channels from a project",
    "syntax": "<project-name> <channel1> <channel2> <...>",
    "required_roles": [],
    "required_perms": []
  },
  "csv": {
    "desc": "Creates a staff vote",
    "syntax": "<timer(mins)> <desc>",
    "required_roles": [],
    "required_perms": []
  },
  "ad": {
    "desc": "Adds a dev to your project",
    "syntax": "<project-name> <username>",
    "required_roles": [],
    "required_perms": []
  },
  "ca": {
    "desc": "Creates announcement",
    "syntax": "<general/add/remove/modify> <title> <desc>",
    "required_roles": [],
    "required_perms": []
  },
  "art": {
    "desc": "Creates ascii art",
    "syntax": "<font> <message>",
    "required_roles": [],
    "required_perms": []
  },
  "rm": {
    "desc": "Deletes a message in a channel",
    "syntax": "<message-id>",
    "required_roles": [],
    "required_perms": []
  },
  "cp": {
    "desc": "Creates new project",
    "syntax": "<project-name> <channel1> <channel2> <...>",
    "required_roles": [],
    "required_perms": []
  },
  "wiki": {
    "desc": "Searches the wikipedia for results",
    "syntax": "<topic>",
    "required_roles": [],
    "required_perms": []
  },
  "cs": {
    "desc": "Changes bot status",
    "syntax": "<static/dynamic> <desc>",
    "required_roles": [],
    "required_perms": []
  },
  "pc": {
    "desc": "Updates project color by Hex",
    "syntax": "<hex> <project-name>",
    "required_roles": [],
    "required_perms": []
  },
  "rp": {
    "desc": "Renames project",
    "syntax": "<project-name> <new-project-name>",
    "required_roles": [],
    "required_perms": []
  },
  "ls": {
    "desc": "Shows you all files in the specified directory",
    "syntax": "<dir>",
    "required_roles": [],
    "required_perms": []
  },
  "prc": {
    "desc": "Updates project with new random color",
    "syntax": "<project-name>",
    "required_roles": [],
    "required_perms": []
  },
  "say": {
    "desc": "Sends an embed",
    "syntax": "<title> <message>",
    "required_roles": [],
    "required_perms": []
  },
  "dp": {
    "desc": "Deletes project",
    "syntax": "<project-name>",
    "required_roles": [],
    "required_perms": []
  },
  "stat": {
    "desc": "Shows user info",
    "syntax": "<member>",
    "required_roles": [],
    "required_perms": []
  },
  "artfonts": {
    "desc": "Displays ascii fonts",
    "syntax": "None",
    "required_roles": [],
    "required_perms": []
  },
  "ac": {
    "desc": "Adds channels to a project",
    "syntax": "<project-name> <channel1> <channel2> <...>",
    "required_roles": [],
    "required_perms": []
  },
  "pab": {
    "desc": "Adds a bot to your project",
    "syntax": "<project-name> <bot-name>",
    "required_roles": [],
    "required_perms": []
  }
}